%YAML 1.1
%TAG !u! tag:unity3d.com,2011:
--- !u!319 &31900000
AvatarMask:
  m_ObjectHideFlags: 0
  m_CorrespondingSourceObject: {fileID: 0}
  m_PrefabInstance: {fileID: 0}
  m_PrefabAsset: {fileID: 0}
  m_Name: Rifle Layer Anim Mask
  m_Mask: 00000000010000000100000000000000000000000100000001000000010000000100000000000000000000000000000000000000
  m_Elements:
  - m_Path: 
    m_Weight: 1
  - m_Path: Bodies
    m_Weight: 1
  - m_Path: Bodies/MainBody01
    m_Weight: 1
  - m_Path: Bodies/MainBody02
    m_Weight: 1
  - m_Path: Bodies/MainBody03
    m_Weight: 1
  - m_Path: Bodies/MainBody04
    m_Weight: 1
  - m_Path: Bodies/MainBody05
    m_Weight: 1
  - m_Path: Bodies/MainBody06
    m_Weight: 1
  - m_Path: Bodyparts
    m_Weight: 1
  - m_Path: Bodyparts/Bodypart01
    m_Weight: 1
  - m_Path: Bodyparts/Bodypart02
    m_Weight: 1
  - m_Path: Bodyparts/Bodypart03
    m_Weight: 1
  - m_Path: Bodyparts/Bodypart04
    m_Weight: 1
  - m_Path: Bodyparts/Bodypart05
    m_Weight: 1
  - m_Path: Bodyparts/Bodypart06
    m_Weight: 1
  - m_Path: Bodyparts/Bodypart07
    m_Weight: 1
  - m_Path: Bodyparts/Bodypart08
    m_Weight: 1
  - m_Path: Bodyparts/Bodypart09
    m_Weight: 1
  - m_Path: Bodyparts/Bodypart10
    m_Weight: 1
  - m_Path: Eyes
    m_Weight: 1
  - m_Path: Eyes/Eye01
    m_Weight: 1
  - m_Path: Eyes/Eye02
    m_Weight: 1
  - m_Path: Eyes/Eye04
    m_Weight: 1
  - m_Path: Eyes/Eye05
    m_Weight: 1
  - m_Path: Eyes/Eye06
    m_Weight: 1
  - m_Path: Eyes/Eye08
    m_Weight: 1
  - m_Path: Eyes/Eye09
    m_Weight: 1
  - m_Path: Eyes/Eye10
    m_Weight: 1
  - m_Path: Eyes/Eye11
    m_Weight: 1
  - m_Path: Eyes/Eye12
    m_Weight: 1
  - m_Path: Eyes/Eye15
    m_Weight: 1
  - m_Path: Gloves
    m_Weight: 1
  - m_Path: Gloves/Glove01
    m_Weight: 1
  - m_Path: Gloves/Glove02
    m_Weight: 1
  - m_Path: Gloves/Glove03
    m_Weight: 1
  - m_Path: Gloves/Glove04
    m_Weight: 1
  - m_Path: Gloves/Glove05
    m_Weight: 1
  - m_Path: Gloves/Glove06
    m_Weight: 1
  - m_Path: Gloves/Glove07
    m_Weight: 1
  - m_Path: Gloves/Glove08
    m_Weight: 1
  - m_Path: Gloves/Glove09
    m_Weight: 1
  - m_Path: Gloves/Glove10
    m_Weight: 1
  - m_Path: Headparts
    m_Weight: 1
  - m_Path: Headparts/Ear01
    m_Weight: 1
  - m_Path: Headparts/Hair07
    m_Weight: 1
  - m_Path: Headparts/Hair08
    m_Weight: 1
  - m_Path: Headparts/Hat18
    m_Weight: 1
  - m_Path: MouthandNoses
    m_Weight: 1
  - m_Path: MouthandNoses/Mouth01
    m_Weight: 1
  - m_Path: MouthandNoses/Mouth02
    m_Weight: 1
  - m_Path: MouthandNoses/Mouth03
    m_Weight: 1
  - m_Path: MouthandNoses/Mouth04
    m_Weight: 1
  - m_Path: MouthandNoses/Mouth05
    m_Weight: 1
  - m_Path: MouthandNoses/Mouth06
    m_Weight: 1
  - m_Path: MouthandNoses/Mouth07
    m_Weight: 1
  - m_Path: MouthandNoses/Mouth08
    m_Weight: 1
  - m_Path: MouthandNoses/Mouth09
    m_Weight: 1
  - m_Path: MouthandNoses/Mouth15
    m_Weight: 1
  - m_Path: MouthandNoses/Nose10
    m_Weight: 1
  - m_Path: MouthandNoses/Nose11
    m_Weight: 1
  - m_Path: MouthandNoses/Nose12
    m_Weight: 1
  - m_Path: MouthandNoses/Nose13
    m_Weight: 1
  - m_Path: MouthandNoses/Nose14
    m_Weight: 1
  - m_Path: root
    m_Weight: 1
  - m_Path: root/pelvis
    m_Weight: 1
  - m_Path: root/pelvis/spine_01
    m_Weight: 1
  - m_Path: root/pelvis/spine_01/FrontBelly
    m_Weight: 1
  - m_Path: root/pelvis/spine_01/spine_02
    m_Weight: 1
  - m_Path: root/pelvis/spine_01/spine_02/spine_03
    m_Weight: 1
  - m_Path: root/pelvis/spine_01/spine_02/spine_03/clavicle_l
    m_Weight: 1
  - m_Path: root/pelvis/spine_01/spine_02/spine_03/clavicle_l/upperarm_l
    m_Weight: 1
  - m_Path: root/pelvis/spine_01/spine_02/spine_03/clavicle_l/upperarm_l/lowerarm_l
    m_Weight: 1
  - m_Path: root/pelvis/spine_01/spine_02/spine_03/clavicle_l/upperarm_l/lowerarm_l/hand_l
    m_Weight: 1
  - m_Path: root/pelvis/spine_01/spine_02/spine_03/clavicle_l/upperarm_l/lowerarm_l/hand_l/drill_l
    m_Weight: 1
  - m_Path: root/pelvis/spine_01/spine_02/spine_03/clavicle_l/upperarm_l/lowerarm_l/hand_l/LowerJaw_l
    m_Weight: 1
  - m_Path: root/pelvis/spine_01/spine_02/spine_03/clavicle_l/upperarm_l/lowerarm_l/hand_l/saw_l
    m_Weight: 1
  - m_Path: root/pelvis/spine_01/spine_02/spine_03/clavicle_l/upperarm_l/lowerarm_l/hand_l/upperJaw_l
    m_Weight: 1
  - m_Path: root/pelvis/spine_01/spine_02/spine_03/clavicle_r
    m_Weight: 1
  - m_Path: root/pelvis/spine_01/spine_02/spine_03/clavicle_r/upperarm_r
    m_Weight: 1
  - m_Path: root/pelvis/spine_01/spine_02/spine_03/clavicle_r/upperarm_r/lowerarm_r
    m_Weight: 1
  - m_Path: root/pelvis/spine_01/spine_02/spine_03/clavicle_r/upperarm_r/lowerarm_r/hand_r
    m_Weight: 1
  - m_Path: root/pelvis/spine_01/spine_02/spine_03/clavicle_r/upperarm_r/lowerarm_r/hand_r/drill_r
    m_Weight: 1
  - m_Path: root/pelvis/spine_01/spine_02/spine_03/clavicle_r/upperarm_r/lowerarm_r/hand_r/LowerJaw_r
    m_Weight: 1
  - m_Path: root/pelvis/spine_01/spine_02/spine_03/clavicle_r/upperarm_r/lowerarm_r/hand_r/saw_r
    m_Weight: 1
  - m_Path: root/pelvis/spine_01/spine_02/spine_03/clavicle_r/upperarm_r/lowerarm_r/hand_r/upperJaw_r
    m_Weight: 1
  - m_Path: root/pelvis/spine_01/spine_02/spine_03/neck_01
    m_Weight: 1
  - m_Path: root/pelvis/spine_01/spine_02/spine_03/neck_01/head
    m_Weight: 1
  - m_Path: root/pelvis/spine_01/spine_02/spine_03/neck_01/head/Comb14
    m_Weight: 1
  - m_Path: root/pelvis/spine_01/spine_02/spine_03/neck_01/head/Ear02
    m_Weight: 1
  - m_Path: root/pelvis/spine_01/spine_02/spine_03/neck_01/head/Ear03
    m_Weight: 1
  - m_Path: root/pelvis/spine_01/spine_02/spine_03/neck_01/head/Ear04
    m_Weight: 1
  - m_Path: root/pelvis/spine_01/spine_02/spine_03/neck_01/head/Ear05
    m_Weight: 1
  - m_Path: root/pelvis/spine_01/spine_02/spine_03/neck_01/head/Eye03
    m_Weight: 1
  - m_Path: root/pelvis/spine_01/spine_02/spine_03/neck_01/head/Eye07
    m_Weight: 1
  - m_Path: root/pelvis/spine_01/spine_02/spine_03/neck_01/head/Eye13
    m_Weight: 1
  - m_Path: root/pelvis/spine_01/spine_02/spine_03/neck_01/head/Eye14
    m_Weight: 1
  - m_Path: root/pelvis/spine_01/spine_02/spine_03/neck_01/head/face
    m_Weight: 1
  - m_Path: root/pelvis/spine_01/spine_02/spine_03/neck_01/head/face/mouth
    m_Weight: 1
  - m_Path: root/pelvis/spine_01/spine_02/spine_03/neck_01/head/Grass15
    m_Weight: 1
  - m_Path: root/pelvis/spine_01/spine_02/spine_03/neck_01/head/Hair06
    m_Weight: 1
  - m_Path: root/pelvis/spine_01/spine_02/spine_03/neck_01/head/Hair09
    m_Weight: 1
  - m_Path: root/pelvis/spine_01/spine_02/spine_03/neck_01/head/Hat16
    m_Weight: 1
  - m_Path: root/pelvis/spine_01/spine_02/spine_03/neck_01/head/Hat17
    m_Weight: 1
  - m_Path: root/pelvis/spine_01/spine_02/spine_03/neck_01/head/Hat19
    m_Weight: 1
  - m_Path: root/pelvis/spine_01/spine_02/spine_03/neck_01/head/Hat20
    m_Weight: 1
  - m_Path: root/pelvis/spine_01/spine_02/spine_03/neck_01/head/Hat21
    m_Weight: 1
  - m_Path: root/pelvis/spine_01/spine_02/spine_03/neck_01/head/hat_01
    m_Weight: 1
  - m_Path: root/pelvis/spine_01/spine_02/spine_03/neck_01/head/hat_01/hat_02
    m_Weight: 1
  - m_Path: root/pelvis/spine_01/spine_02/spine_03/neck_01/head/Horn10
    m_Weight: 1
  - m_Path: root/pelvis/spine_01/spine_02/spine_03/neck_01/head/Horn11
    m_Weight: 1
  - m_Path: root/pelvis/spine_01/spine_02/spine_03/neck_01/head/Horn12
    m_Weight: 1
  - m_Path: root/pelvis/spine_01/spine_02/spine_03/neck_01/head/Horn13
    m_Weight: 1
  - m_Path: root/pelvis/spine_01/spine_02/spine_03/neck_01/head/hornA_01_l
    m_Weight: 1
  - m_Path: root/pelvis/spine_01/spine_02/spine_03/neck_01/head/hornA_01_l/hornA_02_l
    m_Weight: 1
  - m_Path: root/pelvis/spine_01/spine_02/spine_03/neck_01/head/hornA_01_r
    m_Weight: 1
  - m_Path: root/pelvis/spine_01/spine_02/spine_03/neck_01/head/hornA_01_r/hornA_02_r
    m_Weight: 1
  - m_Path: root/pelvis/spine_01/spine_02/spine_03/neck_01/head/hornB_01_l
    m_Weight: 1
  - m_Path: root/pelvis/spine_01/spine_02/spine_03/neck_01/head/hornB_01_l/hornB_02_l
    m_Weight: 1
  - m_Path: root/pelvis/spine_01/spine_02/spine_03/neck_01/head/hornB_01_l/hornB_02_l/hornB_03_l
    m_Weight: 1
  - m_Path: root/pelvis/spine_01/spine_02/spine_03/neck_01/head/hornB_01_r
    m_Weight: 1
  - m_Path: root/pelvis/spine_01/spine_02/spine_03/neck_01/head/hornB_01_r/hornB_02_r
    m_Weight: 1
  - m_Path: root/pelvis/spine_01/spine_02/spine_03/neck_01/head/hornB_01_r/hornB_02_r/hornB_03_r
    m_Weight: 1
  - m_Path: root/pelvis/spine_01/spine_02/spine_03/neck_01/head/hornC_01_l
    m_Weight: 1
  - m_Path: root/pelvis/spine_01/spine_02/spine_03/neck_01/head/hornC_01_l/hornC_02_l
    m_Weight: 1
  - m_Path: root/pelvis/spine_01/spine_02/spine_03/neck_01/head/hornC_01_r
    m_Weight: 1
  - m_Path: root/pelvis/spine_01/spine_02/spine_03/neck_01/head/hornC_01_r/hornC_02_r
    m_Weight: 1
  - m_Path: root/pelvis/spine_01/spine_02/spine_03/neck_01/head/Jaw
    m_Weight: 1
  - m_Path: root/pelvis/tail_01
    m_Weight: 1
  - m_Path: root/pelvis/tail_01/tail_02
    m_Weight: 1
  - m_Path: root/pelvis/tail_01/tail_02/tail_03
    m_Weight: 1
  - m_Path: root/pelvis/tail_01/tail_02/tail_03/tail_04
    m_Weight: 1
  - m_Path: root/pelvis/thigh_l
    m_Weight: 1
  - m_Path: root/pelvis/thigh_l/calf_l
    m_Weight: 1
  - m_Path: root/pelvis/thigh_l/calf_l/foot_l
    m_Weight: 1
  - m_Path: root/pelvis/thigh_l/calf_l/foot_l/ball_l
    m_Weight: 1
  - m_Path: root/pelvis/thigh_r
    m_Weight: 1
  - m_Path: root/pelvis/thigh_r/calf_r
    m_Weight: 1
  - m_Path: root/pelvis/thigh_r/calf_r/foot_r
    m_Weight: 1
  - m_Path: root/pelvis/thigh_r/calf_r/foot_r/ball_r
    m_Weight: 1
  - m_Path: Tails
    m_Weight: 1
  - m_Path: Tails/Tail01
    m_Weight: 1
  - m_Path: Tails/Tail02
    m_Weight: 1
  - m_Path: Tails/Tail03
    m_Weight: 1
  - m_Path: Tails/Tail04
    m_Weight: 1
  - m_Path: Tails/Tail05
    m_Weight: 1
  - m_Path: Tails/Tail06
    m_Weight: 1
  - m_Path: Tails/Tail07
    m_Weight: 1
  - m_Path: Tails/Tail08
    m_Weight: 1
